…
                                      na_n = ~ sum(is.na(.x)),
                                      na_perc = ~ (sum(is.na(.x) / n_distinct(apps_outcome))) * 100),
                   .names = "{.col}-{.fn}")
            ) %>% 
  pivot_longer(cols = -Assessment,
               names_to = c("ColNames", ".value"), 
               names_sep = "-",
               ) %>% 
  mutate(max = round(max, digits = 2),
         min = round(min, digits = 2)) %>% 
  unite(range, c("min", "max"), sep = "-") |> 
  arrange(ColNames)
```

    # A tibble: 48 × 8
       Assessment ColNames   mean median    sd range  na_n na_perc
            <dbl> <chr>     <dbl>  <dbl> <dbl> <chr> <int>   <dbl>
     1          0 AUDIT_sum  9.49      8  7.27 0-29      0    0   
     2          1 AUDIT_sum  8.13      7  6.13 0-23      4    1.75
     3          2 AUDIT_sum  8.23      8  5.77 0-24      4    1.75
     4          3 AUDIT_sum  6.70      6  5.57 0-22      4    1.75
     5          0 BAI_sum   23.4      24 11.1  2-47      0    0   
     6          1 BAI_sum   17.7      18 10.1  0-45      3    1.32
     7          2 BAI_sum   16.7      15 10.5  0-46      4    1.75
     8          3 BAI_sum   17.1      14 12.6  0-55      4    1.75
     9          0 HAMD_sum  15.6      16  6.28 3-32      0    0   
    10          1 HAMD_sum  10.8       9  6.60 1-28      3    1.32
    # ℹ 38 more rows
…
Of note, there were 24 unique therapists and many only had 1 participant
in the sample.

``` r
apps_outcome |> 
  group_by(TherapistID) |> 
  summarize(n_distinct(ParticipantID)) |> 
  rename(number_pts = "n_distinct(ParticipantID)")
```

    # A tibble: 24 × 2
       TherapistID number_pts
       <dbl+lbl>        <int>
     1  1 [AG]              1
     2  2 [AS]              1
     3  3 [BC]              1
     4  4 [CT]              2
     5  5 [EMB]             1
     6  6 [FK]              2
     7  7 [FN]              4
     8  8 [FP]              2
     9  9 [ID]              1
    10 10 [JC]              1
    # ℹ 14 more rows
…
