…
# Sensitivity analysis b: HAMD, IHS, and SOC w/ potential outlier excluded

Identify the outlier (score of 4.75 on LADI):

``` r
apps_outcome |> select(ParticipantID, Average_Affirm) |> arrange(desc(Average_Affirm))
```

    # A tibble: 228 × 2
       ParticipantID Average_Affirm
               <dbl>          <dbl>
     1          3115           4.75
     2          3115           4.75
     3          3115           4.75
     4          3115           4.75
     5          3153           4   
     6          3153           4   
     7          3153           4   
     8          3153           4   
     9          3081           3.5 
    10          3081           3.5 
    # ℹ 218 more rows
…
